....
----------------------------------------------------------------------
Ran 4 tests in 0.001s

OK




Name               Stmts   Miss Branch BrPart  Cover   Missing
--------------------------------------------------------------
Diplomacy.py          93      0     50      0   100%
TestDiplomacy.py      21      0      2      1    96%   25->exit
--------------------------------------------------------------
TOTAL                114      0     52      1    99%
