......
----------------------------------------------------------------------
Ran 6 tests in 0.003s

OK
Name               Stmts   Miss Branch BrPart  Cover   Missing
--------------------------------------------------------------
Diplomacy.py          99      0     78      0   100%
TestDiplomacy.py      26      0      0      0   100%
--------------------------------------------------------------
TOTAL                125      0     78      0   100%
