.............
----------------------------------------------------------------------
Ran 13 tests in 0.003s

OK
success
success
success
Name               Stmts   Miss Branch BrPart  Cover   Missing
--------------------------------------------------------------
Diplomacy.py         100      0     42      2    99%   21->exit, 58->exit
TestDiplomacy.py      77      2      0      0    97%   50-51
--------------------------------------------------------------
TOTAL                177      2     42      2    98%
