.................
----------------------------------------------------------------------
Ran 17 tests in 0.002s

OK
Name               Stmts   Miss Branch BrPart  Cover   Missing
--------------------------------------------------------------
Diplomacy.py          86      0     48      0   100%
TestDiplomacy.py      67      0      2      1    99%   98->exit
--------------------------------------------------------------
TOTAL                153      0     50      1    99%
